Categories:System
License:Apache-2.0
Author Name:Tibor Kaputa
Author Email:hello@simplemobiletools.com
Web Site:https://simplemobiletools.com
Source Code:https://github.com/SimpleMobileTools/Simple-Flashlight
Issue Tracker:https://github.com/SimpleMobileTools/Simple-Flashlight/issues
Changelog:https://github.com/SimpleMobileTools/Simple-Flashlight/blob/HEAD/CHANGELOG.md
Donate:https://simplemobiletools.com/donate
Bitcoin:19Hc8A7sWGud8sP19VXDC5a5j28UyJfpyJ
Litecoin:LYACbHTKaM9ZubKQGxJ4NRyVy1gHUuztRP

Auto Name:Flashlight

Repo Type:git
Repo:https://github.com/SimpleMobileTools/Simple-Flashlight

Build:1.8,8
    commit=3562a37fd0e968f547e3d87388a4bd624a8c7370
    subdir=app
    gradle=yes

Build:1.9,9
    commit=1.9
    subdir=app
    gradle=yes

Build:1.11,11
    commit=1.11
    subdir=app
    gradle=yes

Build:1.13,13
    commit=1.13
    subdir=app
    gradle=yes

Build:1.14,14
    commit=1.14
    subdir=app
    gradle=yes

Build:1.15,15
    commit=1.15
    subdir=app
    gradle=yes

Build:1.17,17
    commit=1.17
    subdir=app
    gradle=yes

Build:1.18,18
    commit=1.18
    subdir=app
    gradle=yes

Build:1.19,19
    commit=1.19
    subdir=app
    gradle=yes

Build:1.20,20
    commit=1.20
    subdir=app
    gradle=yes

Build:1.21,21
    commit=1.21
    subdir=app
    gradle=yes

Build:1.22,22
    commit=0860286843d8cd34dfe842b42ef12356190206f2
    subdir=app
    gradle=yes

Build:3.0.0,24
    commit=3.0.0
    subdir=app
    gradle=yes

Build:3.0.1,25
    commit=3.0.1
    subdir=app
    gradle=yes

Build:3.1.0,26
    commit=3.1.0
    subdir=app
    gradle=yes

Build:3.2.0,27
    commit=3.2.0
    subdir=app
    gradle=yes

Build:3.2.1,28
    commit=3.2.1
    subdir=app
    gradle=yes

Build:4.0.0,29
    commit=4.0.0
    subdir=app
    gradle=yes

Build:4.1.0,30
    commit=4.1.0
    subdir=app
    gradle=yes

Build:4.2.0,31
    commit=4.2.0
    subdir=app
    gradle=yes

Build:5.0.0,32
    commit=5.0.0
    subdir=app
    gradle=yes

Build:5.0.1,33
    commit=5.0.1
    subdir=app
    gradle=yes

Auto Update Mode:Version %v
Update Check Mode:Tags
Current Version:5.0.1
Current Version Code:33
